%YAML 1.1
%TAG !u! tag:unity3d.com,2011:
--- !u!114 &11400000
MonoBehaviour:
  m_ObjectHideFlags: 0
  m_CorrespondingSourceObject: {fileID: 0}
  m_PrefabInternal: {fileID: 0}
  m_GameObject: {fileID: 0}
  m_Enabled: 1
  m_EditorHideFlags: 0
  m_Script: {fileID: 11500000, guid: 910489c8bc1edc94db8b8ed8187c8e67, type: 3}
  m_Name: 17_
  m_EditorClassIdentifier: 
  levelNo: 17
  maxProjectiles: 4
  maxPickups: 10
  bigAsteroidCount: 0
  smallAsteroidCount: 0
  pathElements:
  - positions:
    - {x: 10, y: 13.25}
    - {x: 23.5, y: -0.75}
    - {x: 10, y: -0.75}
    - {x: -23.25, y: 13.25}
    - {x: -23.25, y: -0.75}
    - {x: -10, y: -0.75}
    speeds:
    - 13
    - 13
    - 10
    - 10
    - 13
    - 13
    endPositions:
    - {x: -7.5, y: 0}
    - {x: -6, y: -2}
    - {x: -6, y: 2}
    - {x: -7.5, y: -1.5}
    - {x: -12, y: 0}
    - {x: -10.5, y: -1.5}
    - {x: -10.5, y: 1.5}
    resetSpeed: 000100000100
    teleportToNext: 010000010000
    destroyAlien: 000000000000
    velsAfterArrival:
    - 0
    - 5
    - 0
    - 0
    - 15
    - 0
    radiiOfCols:
    - 2
    - 2
    - 0.1
    - 2
    - 2
    - 2
    loop: 0
  - positions:
    - {x: 10, y: 14.75}
    - {x: 23.5, y: 0.75}
    - {x: 10, y: 0.75}
    - {x: -23.25, y: 14.75}
    - {x: -23.25, y: 0.75}
    - {x: -10, y: 0.75}
    speeds:
    - 13
    - 13
    - 10
    - 10
    - 13
    - 13
    endPositions:
    - {x: -10.5, y: 0}
    - {x: -9, y: -2}
    - {x: -9, y: 2}
    - {x: -12, y: 2}
    - {x: -12, y: -2}
    - {x: -14, y: 0}
    - {x: -7.5, y: 1.5}
    resetSpeed: 000100000100
    teleportToNext: 010000010000
    destroyAlien: 000000000000
    velsAfterArrival:
    - 0
    - 5
    - 0
    - 0
    - 15
    - 0
    radiiOfCols:
    - 2
    - 2
    - 0.1
    - 2
    - 2
    - 2
    loop: 0
  - positions:
    - {x: -9.999984, y: -14.000011}
    - {x: -23.5, y: -0.000027313827}
    - {x: -13.749994, y: -5.250016}
    - {x: -13.749984, y: -14.000016}
    - {x: 23.25, y: 0.000027023254}
    - {x: 10, y: 0.000011622905}
    speeds:
    - 13
    - 13
    - 9
    - 13
    - 13
    - 13
    endPositions:
    - {x: 10, y: 0}
    - {x: 10, y: 1.25}
    - {x: 10, y: -1.25}
    - {x: 11, y: -0.5}
    - {x: 9, y: 0.5}
    - {x: 11, y: 0.5}
    - {x: 9, y: -0.5}
    resetSpeed: 000100000100
    teleportToNext: 010000010000
    destroyAlien: 000000000000
    velsAfterArrival:
    - 0
    - 5
    - 0
    - 0
    - 5
    - 0
    radiiOfCols:
    - 2
    - 2
    - 0.1
    - 2
    - 2
    - 2
    loop: 0
  - positions:
    - {x: 10, y: 14}
    - {x: 23.5, y: 0}
    - {x: 10, y: 0}
    - {x: -23.25, y: 14}
    - {x: -23.25, y: 0}
    - {x: -10, y: 0}
    speeds:
    - 13
    - 13
    - 10
    - 10
    - 13
    - 13
    endPositions:
    - {x: -13, y: 1}
    - {x: -9, y: 0}
    - {x: -6.25, y: -0.5}
    - {x: -13, y: -1}
    - {x: -6.25, y: 0.75}
    - {x: -7.5, y: -3}
    - {x: -7.5, y: 3}
    resetSpeed: 000100000100
    teleportToNext: 010000010000
    destroyAlien: 000000000000
    velsAfterArrival:
    - 0
    - 5
    - 0
    - 0
    - 15
    - 0
    radiiOfCols:
    - 2
    - 2
    - 0.1
    - 2
    - 2
    - 2
    loop: 0
  enemyPositionElements:
  - position: {x: 10, y: 27.25}
    poolIndex: 4
    pathIndex: 0
  - position: {x: 10, y: 25.75}
    poolIndex: 4
    pathIndex: 0
  - position: {x: 10, y: 24.25}
    poolIndex: 4
    pathIndex: 0
  - position: {x: 10, y: 28.75}
    poolIndex: 4
    pathIndex: 0
  - position: {x: 10, y: 22.75}
    poolIndex: 4
    pathIndex: 0
  - position: {x: 10, y: 21.25}
    poolIndex: 4
    pathIndex: 0
  - position: {x: 10, y: 19.75}
    poolIndex: 4
    pathIndex: 0
  - position: {x: 10, y: 21.25}
    poolIndex: 4
    pathIndex: 1
  - position: {x: 10, y: 22.75}
    poolIndex: 4
    pathIndex: 1
  - position: {x: 10, y: 24.25}
    poolIndex: 4
    pathIndex: 1
  - position: {x: 10, y: 30.25}
    poolIndex: 4
    pathIndex: 1
  - position: {x: 10, y: 25.75}
    poolIndex: 4
    pathIndex: 1
  - position: {x: 10, y: 27.25}
    poolIndex: 4
    pathIndex: 1
  - position: {x: 10, y: 28.75}
    poolIndex: 4
    pathIndex: 1
  - position: {x: -9.999976, y: -20.500011}
    poolIndex: 4
    pathIndex: 2
  - position: {x: -9.999974, y: -22.000011}
    poolIndex: 4
    pathIndex: 2
  - position: {x: -9.999972, y: -23.500011}
    poolIndex: 4
    pathIndex: 2
  - position: {x: -9.999966, y: -29.500011}
    poolIndex: 4
    pathIndex: 2
  - position: {x: -9.999971, y: -25.000011}
    poolIndex: 4
    pathIndex: 2
  - position: {x: -9.9999695, y: -26.500011}
    poolIndex: 4
    pathIndex: 2
  - position: {x: -9.999968, y: -28.000011}
    poolIndex: 4
    pathIndex: 2
  - position: {x: 10, y: 28}
    poolIndex: 4
    pathIndex: 3
  - position: {x: 10, y: 26.5}
    poolIndex: 4
    pathIndex: 3
  - position: {x: 10, y: 25}
    poolIndex: 4
    pathIndex: 3
  - position: {x: 10, y: 29.5}
    poolIndex: 4
    pathIndex: 3
  - position: {x: 10, y: 23.5}
    poolIndex: 4
    pathIndex: 3
  - position: {x: 10, y: 22}
    poolIndex: 4
    pathIndex: 3
  - position: {x: 10, y: 20.5}
    poolIndex: 4
    pathIndex: 3
  specialAlienElements: []
