%YAML 1.1
%TAG !u! tag:unity3d.com,2011:
--- !u!114 &11400000
MonoBehaviour:
  m_ObjectHideFlags: 0
  m_CorrespondingSourceObject: {fileID: 0}
  m_PrefabInternal: {fileID: 0}
  m_GameObject: {fileID: 0}
  m_Enabled: 1
  m_EditorHideFlags: 0
  m_Script: {fileID: 11500000, guid: 910489c8bc1edc94db8b8ed8187c8e67, type: 3}
  m_Name: 20_RITUAL
  m_EditorClassIdentifier: 
  levelNo: 20
  maxProjectiles: 5
  maxPickups: 10
  bigAsteroidCount: 0
  smallAsteroidCount: 0
  pathElements:
  - positions:
    - {x: -12, y: -0.000013947485}
    - {x: -8.999995, y: -4.0000105}
    - {x: -7.500003, y: 2.4999912}
    speeds:
    - 10
    - 10
    - 10
    endPositions: []
    resetSpeed: 000000
    teleportToNext: 000000
    destroyAlien: 000000
    velsAfterArrival:
    - 0
    - 0
    - 0
    radiiOfCols:
    - 0.3
    - 0.3
    - 0.3
    loop: 1
  - positions:
    - {x: 12, y: 0.000013947485}
    - {x: 9.000005, y: -3.9999895}
    - {x: 7.499997, y: 2.5000088}
    speeds:
    - 10
    - 10
    - 10
    endPositions: []
    resetSpeed: 000000
    teleportToNext: 000000
    destroyAlien: 000000
    velsAfterArrival:
    - 0
    - 0
    - 0
    radiiOfCols:
    - 0.3
    - 0.3
    - 0.3
    loop: 1
  - positions:
    - {x: -12, y: 0}
    - {x: -9, y: 4}
    - {x: -7.5, y: -2.5}
    speeds:
    - 10
    - 10
    - 10
    endPositions: []
    resetSpeed: 000000
    teleportToNext: 000000
    destroyAlien: 000000
    velsAfterArrival:
    - 0
    - 0
    - 0
    radiiOfCols:
    - 0.3
    - 0.3
    - 0.3
    loop: 1
  - positions:
    - {x: 12, y: 0}
    - {x: 9, y: 4}
    - {x: 7.5, y: -2.5}
    speeds:
    - 10
    - 10
    - 10
    endPositions: []
    resetSpeed: 000000
    teleportToNext: 000000
    destroyAlien: 000000
    velsAfterArrival:
    - 0
    - 0
    - 0
    radiiOfCols:
    - 0.3
    - 0.3
    - 0.3
    loop: 1
  enemyPositionElements:
  - position: {x: -0.46001947, y: 19.987818}
    poolIndex: 4
    pathIndex: 0
  - position: {x: 2.5399716, y: 25.183977}
    poolIndex: 4
    pathIndex: 0
  - position: {x: 0.039978586, y: 20.853844}
    poolIndex: 4
    pathIndex: 0
  - position: {x: 0.53997755, y: 21.71987}
    poolIndex: 4
    pathIndex: 0
  - position: {x: 1.0399756, y: 22.585897}
    poolIndex: 4
    pathIndex: 0
  - position: {x: 1.5399746, y: 23.451923}
    poolIndex: 4
    pathIndex: 0
  - position: {x: 2.0399725, y: 24.31795}
    poolIndex: 4
    pathIndex: 0
  - position: {x: 3.0399697, y: 26.050003}
    poolIndex: 4
    pathIndex: 0
  - position: {x: -3.0400302, y: 26.049995}
    poolIndex: 4
    pathIndex: 1
  - position: {x: -2.0400293, y: 24.317945}
    poolIndex: 4
    pathIndex: 1
  - position: {x: -1.5400292, y: 23.45192}
    poolIndex: 4
    pathIndex: 1
  - position: {x: -1.0400281, y: 22.585894}
    poolIndex: 4
    pathIndex: 1
  - position: {x: -0.5400281, y: 21.71987}
    poolIndex: 4
    pathIndex: 1
  - position: {x: -0.04002706, y: 20.853844}
    poolIndex: 4
    pathIndex: 1
  - position: {x: -2.5400302, y: 25.18397}
    poolIndex: 4
    pathIndex: 1
  - position: {x: 0.45997298, y: 19.987818}
    poolIndex: 4
    pathIndex: 1
  - position: {x: -0.45999622, y: -19.987818}
    poolIndex: 4
    pathIndex: 2
  - position: {x: 2.540001, y: -25.183973}
    poolIndex: 4
    pathIndex: 2
  - position: {x: 0.040002823, y: -20.853844}
    poolIndex: 4
    pathIndex: 2
  - position: {x: 0.5400028, y: -21.71987}
    poolIndex: 4
    pathIndex: 2
  - position: {x: 1.0400019, y: -22.585896}
    poolIndex: 4
    pathIndex: 2
  - position: {x: 1.5400019, y: -23.451921}
    poolIndex: 4
    pathIndex: 2
  - position: {x: 2.040001, y: -24.317947}
    poolIndex: 4
    pathIndex: 2
  - position: {x: 3.04, y: -26.05}
    poolIndex: 4
    pathIndex: 2
  - position: {x: -3.04, y: -26.05}
    poolIndex: 4
    pathIndex: 3
  - position: {x: -2.040001, y: -24.317947}
    poolIndex: 4
    pathIndex: 3
  - position: {x: -1.5400019, y: -23.451921}
    poolIndex: 4
    pathIndex: 3
  - position: {x: -1.0400019, y: -22.585896}
    poolIndex: 4
    pathIndex: 3
  - position: {x: -0.5400028, y: -21.71987}
    poolIndex: 4
    pathIndex: 3
  - position: {x: -0.040002823, y: -20.853844}
    poolIndex: 4
    pathIndex: 3
  - position: {x: -2.540001, y: -25.183973}
    poolIndex: 4
    pathIndex: 3
  - position: {x: 0.45999622, y: -19.987818}
    poolIndex: 4
    pathIndex: 3
  specialAlienElements:
  - position: {x: 0, y: 28.5}
    poolIndex: 14
  - position: {x: -0.04539124, y: -32.34}
    poolIndex: 15
