%YAML 1.1
%TAG !u! tag:unity3d.com,2011:
--- !u!114 &11400000
MonoBehaviour:
  m_ObjectHideFlags: 0
  m_CorrespondingSourceObject: {fileID: 0}
  m_PrefabInternal: {fileID: 0}
  m_GameObject: {fileID: 0}
  m_Enabled: 1
  m_EditorHideFlags: 0
  m_Script: {fileID: 11500000, guid: 910489c8bc1edc94db8b8ed8187c8e67, type: 3}
  m_Name: 7_
  m_EditorClassIdentifier: 
  levelNo: 7
  maxProjectiles: 2
  maxPickups: 10
  bigAsteroidCount: 0
  smallAsteroidCount: 0
  pathElements:
  - positions:
    - {x: -9.999995, y: 5.0000086}
    speeds:
    - 10
    endPositions:
    - {x: -8.999996, y: 4.0000076}
    - {x: -10.999996, y: 4.0000095}
    - {x: -10.999995, y: 6.0000095}
    - {x: -8.999995, y: 6.0000076}
    - {x: -9.999995, y: 5.0000086}
    resetSpeed: 00
    teleportToNext: 00
    destroyAlien: 00
    velsAfterArrival:
    - 0
    radiiOfCols:
    - 2
    loop: 0
  - positions:
    - {x: 10, y: -5}
    speeds:
    - 10
    endPositions:
    - {x: 9, y: -4}
    - {x: 11, y: -4}
    - {x: 11, y: -6}
    - {x: 9, y: -6}
    - {x: 10, y: -5}
    resetSpeed: 00
    teleportToNext: 00
    destroyAlien: 00
    velsAfterArrival:
    - 0
    radiiOfCols:
    - 2
    loop: 0
  - positions:
    - {x: -9.999996, y: -3.0000117}
    - {x: -30.000002, y: 1.9999652}
    - {x: -10.000016, y: 13.999989}
    - {x: -9.999993, y: -6.0000114}
    speeds:
    - 15
    - 15
    - 15
    - 15
    endPositions:
    - {x: -9.999993, y: -6.0000114}
    - {x: -10.999991, y: -7.000013}
    - {x: -8.999991, y: -7.0000105}
    - {x: -8.999994, y: -5.0000105}
    - {x: -10.999994, y: -5.000013}
    - {x: -11.999993, y: -6.000014}
    - {x: -7.999993, y: -6.000009}
    - {x: -9.99999, y: -8.000011}
    - {x: -9.999995, y: -4.0000114}
    - {x: -12.249994, y: -4.7500143}
    - {x: -11.249995, y: -3.750013}
    - {x: -12.249991, y: -7.2500143}
    - {x: -11.24999, y: -8.250013}
    - {x: -8.74999, y: -8.2500105}
    - {x: -8.749995, y: -3.7500103}
    - {x: -7.7499914, y: -7.250009}
    - {x: -7.7499943, y: -4.750009}
    resetSpeed: 00010100
    teleportToNext: 00010000
    destroyAlien: 00000000
    velsAfterArrival:
    - 0
    - 0
    - 10
    - 0
    radiiOfCols:
    - 0.1
    - 2
    - 2
    - 2
    loop: 0
  - positions:
    - {x: 10, y: 3}
    - {x: 30, y: -2}
    - {x: 10, y: -14}
    - {x: 10, y: 6}
    speeds:
    - 15
    - 15
    - 15
    - 15
    endPositions:
    - {x: 10, y: 6}
    - {x: 11, y: 7}
    - {x: 9, y: 7}
    - {x: 9, y: 5}
    - {x: 11, y: 5}
    - {x: 12, y: 6}
    - {x: 8, y: 6}
    - {x: 10, y: 8}
    - {x: 10, y: 4}
    - {x: 12.25, y: 4.75}
    - {x: 11.25, y: 3.75}
    - {x: 12.25, y: 7.25}
    - {x: 11.25, y: 8.25}
    - {x: 8.75, y: 8.25}
    - {x: 8.75, y: 3.75}
    - {x: 7.75, y: 7.25}
    - {x: 7.75, y: 4.75}
    resetSpeed: 00010100
    teleportToNext: 00010000
    destroyAlien: 00000000
    velsAfterArrival:
    - 0
    - 0
    - 10
    - 0
    radiiOfCols:
    - 0.1
    - 2
    - 2
    - 2
    loop: 0
  enemyPositionElements:
  - position: {x: -9.800006, y: 40}
    poolIndex: 2
    pathIndex: 0
  - position: {x: -9.800007, y: 43}
    poolIndex: 2
    pathIndex: 0
  - position: {x: -9.800007, y: 41.5}
    poolIndex: 2
    pathIndex: 0
  - position: {x: -9.800008, y: 44.5}
    poolIndex: 2
    pathIndex: 0
  - position: {x: -9.800009, y: 46}
    poolIndex: 2
    pathIndex: 0
  - position: {x: 9.800054, y: -45.99999}
    poolIndex: 2
    pathIndex: 1
  - position: {x: 9.800052, y: -44.49999}
    poolIndex: 2
    pathIndex: 1
  - position: {x: 9.800048, y: -41.49999}
    poolIndex: 2
    pathIndex: 1
  - position: {x: 9.800049, y: -42.99999}
    poolIndex: 2
    pathIndex: 1
  - position: {x: 9.800046, y: -39.99999}
    poolIndex: 2
    pathIndex: 1
  - position: {x: -9.999977, y: -20.000011}
    poolIndex: 2
    pathIndex: 2
  - position: {x: -9.999973, y: -23.000011}
    poolIndex: 2
    pathIndex: 2
  - position: {x: -9.999975, y: -21.500011}
    poolIndex: 2
    pathIndex: 2
  - position: {x: -9.999971, y: -24.500011}
    poolIndex: 2
    pathIndex: 2
  - position: {x: -9.999965, y: -30.500011}
    poolIndex: 2
    pathIndex: 2
  - position: {x: -9.999968, y: -27.500011}
    poolIndex: 2
    pathIndex: 2
  - position: {x: -9.999967, y: -29.000011}
    poolIndex: 2
    pathIndex: 2
  - position: {x: -9.9999695, y: -26.000011}
    poolIndex: 2
    pathIndex: 2
  - position: {x: -9.999963, y: -32.00001}
    poolIndex: 2
    pathIndex: 2
  - position: {x: -9.999959, y: -35.00001}
    poolIndex: 2
    pathIndex: 2
  - position: {x: -9.999961, y: -33.50001}
    poolIndex: 2
    pathIndex: 2
  - position: {x: -9.999958, y: -36.50001}
    poolIndex: 2
    pathIndex: 2
  - position: {x: -9.99995, y: -42.50001}
    poolIndex: 2
    pathIndex: 2
  - position: {x: -9.999954, y: -39.50001}
    poolIndex: 2
    pathIndex: 2
  - position: {x: -9.999952, y: -41.00001}
    poolIndex: 2
    pathIndex: 2
  - position: {x: -9.999956, y: -38.00001}
    poolIndex: 2
    pathIndex: 2
  - position: {x: -9.9999485, y: -44.00001}
    poolIndex: 2
    pathIndex: 2
  - position: {x: 10, y: 44}
    poolIndex: 2
    pathIndex: 3
  - position: {x: 10, y: 38}
    poolIndex: 2
    pathIndex: 3
  - position: {x: 10, y: 41}
    poolIndex: 2
    pathIndex: 3
  - position: {x: 10, y: 39.5}
    poolIndex: 2
    pathIndex: 3
  - position: {x: 10, y: 42.5}
    poolIndex: 2
    pathIndex: 3
  - position: {x: 10, y: 36.5}
    poolIndex: 2
    pathIndex: 3
  - position: {x: 10, y: 33.5}
    poolIndex: 2
    pathIndex: 3
  - position: {x: 10, y: 35}
    poolIndex: 2
    pathIndex: 3
  - position: {x: 10, y: 32}
    poolIndex: 2
    pathIndex: 3
  - position: {x: 10, y: 26}
    poolIndex: 2
    pathIndex: 3
  - position: {x: 10, y: 29}
    poolIndex: 2
    pathIndex: 3
  - position: {x: 10, y: 27.5}
    poolIndex: 2
    pathIndex: 3
  - position: {x: 10, y: 30.5}
    poolIndex: 2
    pathIndex: 3
  - position: {x: 10, y: 24.5}
    poolIndex: 2
    pathIndex: 3
  - position: {x: 10, y: 21.5}
    poolIndex: 2
    pathIndex: 3
  - position: {x: 10, y: 23}
    poolIndex: 2
    pathIndex: 3
  - position: {x: 10, y: 20}
    poolIndex: 2
    pathIndex: 3
  specialAlienElements: []
