%YAML 1.1
%TAG !u! tag:unity3d.com,2011:
--- !u!114 &11400000
MonoBehaviour:
  m_ObjectHideFlags: 0
  m_CorrespondingSourceObject: {fileID: 0}
  m_PrefabInternal: {fileID: 0}
  m_GameObject: {fileID: 0}
  m_Enabled: 1
  m_EditorHideFlags: 0
  m_Script: {fileID: 11500000, guid: 9dde821f9d1b196448e99c70c9c3cbe0, type: 3}
  m_Name: Hull Alien7 Cannon
  m_EditorClassIdentifier: 
  explosionIndex: 68
  alienIndex: 28
  scoreValue: 250
