%YAML 1.1
%TAG !u! tag:unity3d.com,2011:
--- !u!114 &11400000
MonoBehaviour:
  m_ObjectHideFlags: 0
  m_CorrespondingSourceObject: {fileID: 0}
  m_PrefabInternal: {fileID: 0}
  m_GameObject: {fileID: 0}
  m_Enabled: 1
  m_EditorHideFlags: 0
  m_Script: {fileID: 11500000, guid: ed3325c8f3a2f4e46ae12cb6f106a8ee, type: 3}
  m_Name: Big Boss 2
  m_EditorClassIdentifier: 
  hitPoints: 1000
  poolIndex: 33
  turnSpeed: 0
  rotateTowardPlayer: 0
  explosionRadius: 15
  explosionMask:
    serializedVersion: 2
    m_Bits: 0
  fireRate: 4
  weaponSpread: 0
  speed: 5
  projectileIndex: 16
