%YAML 1.1
%TAG !u! tag:unity3d.com,2011:
--- !u!114 &11400000
MonoBehaviour:
  m_ObjectHideFlags: 0
  m_PrefabParentObject: {fileID: 0}
  m_PrefabInternal: {fileID: 0}
  m_GameObject: {fileID: 0}
  m_Enabled: 1
  m_EditorHideFlags: 0
  m_Script: {fileID: 11500000, guid: 9bf67fbcba22be44c94e1bda1e07d7a9, type: 3}
  m_Name: +1 Gem
  m_EditorClassIdentifier: 
  poolIndex: 0
  dropChance: 3
