%YAML 1.1
%TAG !u! tag:unity3d.com,2011:
--- !u!114 &11400000
MonoBehaviour:
  m_ObjectHideFlags: 0
  m_CorrespondingSourceObject: {fileID: 0}
  m_PrefabInternal: {fileID: 0}
  m_GameObject: {fileID: 0}
  m_Enabled: 1
  m_EditorHideFlags: 0
  m_Script: {fileID: 11500000, guid: 46c91f9cbee2a13479cdf0174d8efeca, type: 3}
  m_Name: Alien6_2
  m_EditorClassIdentifier: 
  hitPoints: 4
  fireCooldown: 3
  speed: 5
  lastPartSpeed: 6
  standingSpeed: 0
  standingPeriod: 0
  weaponSpread: 10
  projectileIndex: 21
  poolIndex: 23
  turnSpeed: 0.2
  rotateWhenNoPath: 1
  rotateWhenThereIsPath: 0
  rotateTowardsVelocity: 1
