%YAML 1.1
%TAG !u! tag:unity3d.com,2011:
--- !u!74 &7400000
AnimationClip:
  m_ObjectHideFlags: 0
  m_CorrespondingSourceObject: {fileID: 0}
  m_PrefabInternal: {fileID: 0}
  m_Name: Alien 5 small
  serializedVersion: 6
  m_Legacy: 0
  m_Compressed: 0
  m_UseHighQualityCurve: 1
  m_RotationCurves: []
  m_CompressedRotationCurves: []
  m_EulerCurves: []
  m_PositionCurves: []
  m_ScaleCurves: []
  m_FloatCurves: []
  m_PPtrCurves:
  - curve:
    - time: 0
      value: {fileID: 21300016, guid: b5ab23ba9d54b2a469baeb817ba506d3, type: 3}
    - time: 0.06666667
      value: {fileID: 21300004, guid: b5ab23ba9d54b2a469baeb817ba506d3, type: 3}
    - time: 0.15
      value: {fileID: 21300006, guid: b5ab23ba9d54b2a469baeb817ba506d3, type: 3}
    - time: 0.23333333
      value: {fileID: 21300008, guid: b5ab23ba9d54b2a469baeb817ba506d3, type: 3}
    - time: 0.3
      value: {fileID: 21300006, guid: b5ab23ba9d54b2a469baeb817ba506d3, type: 3}
    - time: 0.36666667
      value: {fileID: 21300004, guid: b5ab23ba9d54b2a469baeb817ba506d3, type: 3}
    - time: 0.45
      value: {fileID: 21300002, guid: b5ab23ba9d54b2a469baeb817ba506d3, type: 3}
    - time: 0.51666665
      value: {fileID: 21300012, guid: b5ab23ba9d54b2a469baeb817ba506d3, type: 3}
    - time: 0.6
      value: {fileID: 21300010, guid: b5ab23ba9d54b2a469baeb817ba506d3, type: 3}
    - time: 0.6666667
      value: {fileID: 21300012, guid: b5ab23ba9d54b2a469baeb817ba506d3, type: 3}
    - time: 0.75
      value: {fileID: 21300002, guid: b5ab23ba9d54b2a469baeb817ba506d3, type: 3}
    attribute: m_Sprite
    path: Alien5_1 (1)
    classID: 212
    script: {fileID: 0}
  - curve:
    - time: 0
      value: {fileID: 21300002, guid: b5ab23ba9d54b2a469baeb817ba506d3, type: 3}
    - time: 0.06666667
      value: {fileID: 21300012, guid: b5ab23ba9d54b2a469baeb817ba506d3, type: 3}
    - time: 0.13333334
      value: {fileID: 21300010, guid: b5ab23ba9d54b2a469baeb817ba506d3, type: 3}
    - time: 0.21666667
      value: {fileID: 21300012, guid: b5ab23ba9d54b2a469baeb817ba506d3, type: 3}
    - time: 0.28333333
      value: {fileID: 21300002, guid: b5ab23ba9d54b2a469baeb817ba506d3, type: 3}
    - time: 0.38333333
      value: {fileID: 21300004, guid: b5ab23ba9d54b2a469baeb817ba506d3, type: 3}
    - time: 0.45
      value: {fileID: 21300006, guid: b5ab23ba9d54b2a469baeb817ba506d3, type: 3}
    - time: 0.51666665
      value: {fileID: 21300008, guid: b5ab23ba9d54b2a469baeb817ba506d3, type: 3}
    - time: 0.6
      value: {fileID: 21300006, guid: b5ab23ba9d54b2a469baeb817ba506d3, type: 3}
    - time: 0.68333334
      value: {fileID: 21300004, guid: b5ab23ba9d54b2a469baeb817ba506d3, type: 3}
    - time: 0.75
      value: {fileID: 21300016, guid: b5ab23ba9d54b2a469baeb817ba506d3, type: 3}
    attribute: m_Sprite
    path: Alien5_1 (2)
    classID: 212
    script: {fileID: 0}
  - curve:
    - time: 0
      value: {fileID: 21300016, guid: b5ab23ba9d54b2a469baeb817ba506d3, type: 3}
    - time: 0.06666667
      value: {fileID: 21300004, guid: b5ab23ba9d54b2a469baeb817ba506d3, type: 3}
    - time: 0.15
      value: {fileID: 21300006, guid: b5ab23ba9d54b2a469baeb817ba506d3, type: 3}
    - time: 0.23333333
      value: {fileID: 21300008, guid: b5ab23ba9d54b2a469baeb817ba506d3, type: 3}
    - time: 0.3
      value: {fileID: 21300006, guid: b5ab23ba9d54b2a469baeb817ba506d3, type: 3}
    - time: 0.36666667
      value: {fileID: 21300004, guid: b5ab23ba9d54b2a469baeb817ba506d3, type: 3}
    - time: 0.45
      value: {fileID: 21300002, guid: b5ab23ba9d54b2a469baeb817ba506d3, type: 3}
    - time: 0.51666665
      value: {fileID: 21300012, guid: b5ab23ba9d54b2a469baeb817ba506d3, type: 3}
    - time: 0.6
      value: {fileID: 21300010, guid: b5ab23ba9d54b2a469baeb817ba506d3, type: 3}
    - time: 0.6666667
      value: {fileID: 21300012, guid: b5ab23ba9d54b2a469baeb817ba506d3, type: 3}
    - time: 0.75
      value: {fileID: 21300002, guid: b5ab23ba9d54b2a469baeb817ba506d3, type: 3}
    attribute: m_Sprite
    path: Alien5_1 (3)
    classID: 212
    script: {fileID: 0}
  - curve:
    - time: 0
      value: {fileID: 21300002, guid: b5ab23ba9d54b2a469baeb817ba506d3, type: 3}
    - time: 0.06666667
      value: {fileID: 21300012, guid: b5ab23ba9d54b2a469baeb817ba506d3, type: 3}
    - time: 0.13333334
      value: {fileID: 21300010, guid: b5ab23ba9d54b2a469baeb817ba506d3, type: 3}
    - time: 0.21666667
      value: {fileID: 21300012, guid: b5ab23ba9d54b2a469baeb817ba506d3, type: 3}
    - time: 0.28333333
      value: {fileID: 21300002, guid: b5ab23ba9d54b2a469baeb817ba506d3, type: 3}
    - time: 0.38333333
      value: {fileID: 21300004, guid: b5ab23ba9d54b2a469baeb817ba506d3, type: 3}
    - time: 0.45
      value: {fileID: 21300006, guid: b5ab23ba9d54b2a469baeb817ba506d3, type: 3}
    - time: 0.51666665
      value: {fileID: 21300008, guid: b5ab23ba9d54b2a469baeb817ba506d3, type: 3}
    - time: 0.6
      value: {fileID: 21300006, guid: b5ab23ba9d54b2a469baeb817ba506d3, type: 3}
    - time: 0.68333334
      value: {fileID: 21300004, guid: b5ab23ba9d54b2a469baeb817ba506d3, type: 3}
    - time: 0.75
      value: {fileID: 21300016, guid: b5ab23ba9d54b2a469baeb817ba506d3, type: 3}
    attribute: m_Sprite
    path: Alien5_1
    classID: 212
    script: {fileID: 0}
  m_SampleRate: 60
  m_WrapMode: 0
  m_Bounds:
    m_Center: {x: 0, y: 0, z: 0}
    m_Extent: {x: 0, y: 0, z: 0}
  m_ClipBindingConstant:
    genericBindings:
    - serializedVersion: 2
      path: 4261144206
      attribute: 0
      script: {fileID: 0}
      typeID: 212
      customType: 23
      isPPtrCurve: 1
    - serializedVersion: 2
      path: 3604395341
      attribute: 0
      script: {fileID: 0}
      typeID: 212
      customType: 23
      isPPtrCurve: 1
    - serializedVersion: 2
      path: 3486352396
      attribute: 0
      script: {fileID: 0}
      typeID: 212
      customType: 23
      isPPtrCurve: 1
    - serializedVersion: 2
      path: 663649230
      attribute: 0
      script: {fileID: 0}
      typeID: 212
      customType: 23
      isPPtrCurve: 1
    pptrCurveMapping:
    - {fileID: 21300016, guid: b5ab23ba9d54b2a469baeb817ba506d3, type: 3}
    - {fileID: 21300004, guid: b5ab23ba9d54b2a469baeb817ba506d3, type: 3}
    - {fileID: 21300006, guid: b5ab23ba9d54b2a469baeb817ba506d3, type: 3}
    - {fileID: 21300008, guid: b5ab23ba9d54b2a469baeb817ba506d3, type: 3}
    - {fileID: 21300006, guid: b5ab23ba9d54b2a469baeb817ba506d3, type: 3}
    - {fileID: 21300004, guid: b5ab23ba9d54b2a469baeb817ba506d3, type: 3}
    - {fileID: 21300002, guid: b5ab23ba9d54b2a469baeb817ba506d3, type: 3}
    - {fileID: 21300012, guid: b5ab23ba9d54b2a469baeb817ba506d3, type: 3}
    - {fileID: 21300010, guid: b5ab23ba9d54b2a469baeb817ba506d3, type: 3}
    - {fileID: 21300012, guid: b5ab23ba9d54b2a469baeb817ba506d3, type: 3}
    - {fileID: 21300002, guid: b5ab23ba9d54b2a469baeb817ba506d3, type: 3}
    - {fileID: 21300002, guid: b5ab23ba9d54b2a469baeb817ba506d3, type: 3}
    - {fileID: 21300012, guid: b5ab23ba9d54b2a469baeb817ba506d3, type: 3}
    - {fileID: 21300010, guid: b5ab23ba9d54b2a469baeb817ba506d3, type: 3}
    - {fileID: 21300012, guid: b5ab23ba9d54b2a469baeb817ba506d3, type: 3}
    - {fileID: 21300002, guid: b5ab23ba9d54b2a469baeb817ba506d3, type: 3}
    - {fileID: 21300004, guid: b5ab23ba9d54b2a469baeb817ba506d3, type: 3}
    - {fileID: 21300006, guid: b5ab23ba9d54b2a469baeb817ba506d3, type: 3}
    - {fileID: 21300008, guid: b5ab23ba9d54b2a469baeb817ba506d3, type: 3}
    - {fileID: 21300006, guid: b5ab23ba9d54b2a469baeb817ba506d3, type: 3}
    - {fileID: 21300004, guid: b5ab23ba9d54b2a469baeb817ba506d3, type: 3}
    - {fileID: 21300016, guid: b5ab23ba9d54b2a469baeb817ba506d3, type: 3}
    - {fileID: 21300016, guid: b5ab23ba9d54b2a469baeb817ba506d3, type: 3}
    - {fileID: 21300004, guid: b5ab23ba9d54b2a469baeb817ba506d3, type: 3}
    - {fileID: 21300006, guid: b5ab23ba9d54b2a469baeb817ba506d3, type: 3}
    - {fileID: 21300008, guid: b5ab23ba9d54b2a469baeb817ba506d3, type: 3}
    - {fileID: 21300006, guid: b5ab23ba9d54b2a469baeb817ba506d3, type: 3}
    - {fileID: 21300004, guid: b5ab23ba9d54b2a469baeb817ba506d3, type: 3}
    - {fileID: 21300002, guid: b5ab23ba9d54b2a469baeb817ba506d3, type: 3}
    - {fileID: 21300012, guid: b5ab23ba9d54b2a469baeb817ba506d3, type: 3}
    - {fileID: 21300010, guid: b5ab23ba9d54b2a469baeb817ba506d3, type: 3}
    - {fileID: 21300012, guid: b5ab23ba9d54b2a469baeb817ba506d3, type: 3}
    - {fileID: 21300002, guid: b5ab23ba9d54b2a469baeb817ba506d3, type: 3}
    - {fileID: 21300002, guid: b5ab23ba9d54b2a469baeb817ba506d3, type: 3}
    - {fileID: 21300012, guid: b5ab23ba9d54b2a469baeb817ba506d3, type: 3}
    - {fileID: 21300010, guid: b5ab23ba9d54b2a469baeb817ba506d3, type: 3}
    - {fileID: 21300012, guid: b5ab23ba9d54b2a469baeb817ba506d3, type: 3}
    - {fileID: 21300002, guid: b5ab23ba9d54b2a469baeb817ba506d3, type: 3}
    - {fileID: 21300004, guid: b5ab23ba9d54b2a469baeb817ba506d3, type: 3}
    - {fileID: 21300006, guid: b5ab23ba9d54b2a469baeb817ba506d3, type: 3}
    - {fileID: 21300008, guid: b5ab23ba9d54b2a469baeb817ba506d3, type: 3}
    - {fileID: 21300006, guid: b5ab23ba9d54b2a469baeb817ba506d3, type: 3}
    - {fileID: 21300004, guid: b5ab23ba9d54b2a469baeb817ba506d3, type: 3}
    - {fileID: 21300016, guid: b5ab23ba9d54b2a469baeb817ba506d3, type: 3}
  m_AnimationClipSettings:
    serializedVersion: 2
    m_AdditiveReferencePoseClip: {fileID: 0}
    m_AdditiveReferencePoseTime: 0
    m_StartTime: 0
    m_StopTime: 0.76666665
    m_OrientationOffsetY: 0
    m_Level: 0
    m_CycleOffset: 0
    m_HasAdditiveReferencePose: 0
    m_LoopTime: 1
    m_LoopBlend: 0
    m_LoopBlendOrientation: 0
    m_LoopBlendPositionY: 0
    m_LoopBlendPositionXZ: 0
    m_KeepOriginalOrientation: 0
    m_KeepOriginalPositionY: 1
    m_KeepOriginalPositionXZ: 0
    m_HeightFromFeet: 0
    m_Mirror: 0
  m_EditorCurves: []
  m_EulerEditorCurves: []
  m_HasGenericRootTransform: 0
  m_HasMotionFloatCurves: 0
  m_GenerateMotionCurves: 0
  m_Events: []
