%YAML 1.1
%TAG !u! tag:unity3d.com,2011:
--- !u!114 &11400000
MonoBehaviour:
  m_ObjectHideFlags: 0
  m_CorrespondingSourceObject: {fileID: 0}
  m_PrefabInternal: {fileID: 0}
  m_GameObject: {fileID: 0}
  m_Enabled: 1
  m_EditorHideFlags: 0
  m_Script: {fileID: 11500000, guid: 910489c8bc1edc94db8b8ed8187c8e67, type: 3}
  m_Name: 22_DO THEY EVEN CARE
  m_EditorClassIdentifier: 
  levelNo: 22
  maxProjectiles: 0
  maxPickups: 6
  bigAsteroidCount: 0
  smallAsteroidCount: 0
  riftAppears: 0
  pathElements: []
  enemyPositionElements: []
  specialAlienElements: []
