%YAML 1.1
%TAG !u! tag:unity3d.com,2011:
--- !u!114 &11400000
MonoBehaviour:
  m_ObjectHideFlags: 0
  m_CorrespondingSourceObject: {fileID: 0}
  m_PrefabInternal: {fileID: 0}
  m_GameObject: {fileID: 0}
  m_Enabled: 1
  m_EditorHideFlags: 0
  m_Script: {fileID: 11500000, guid: 910489c8bc1edc94db8b8ed8187c8e67, type: 3}
  m_Name: 29_
  m_EditorClassIdentifier: 
  levelNo: 28
  maxProjectiles: 20
  maxPickups: 10
  bigAsteroidCount: 0
  smallAsteroidCount: 0
  riftAppears: 0
  pathElements:
  - positions:
    - {x: 0, y: 0}
    speeds:
    - 10
    endPositions:
    - {x: 0, y: 5}
    - {x: 0, y: 5}
    - {x: 2, y: 4}
    - {x: 2, y: 4}
    - {x: 3.25, y: 3.25}
    - {x: 3.25, y: 3.25}
    - {x: 4, y: 2}
    - {x: 4, y: 2}
    - {x: 5, y: 0}
    - {x: 5, y: 0}
    - {x: 4, y: -2}
    - {x: 4, y: -2}
    - {x: 3.25, y: -3.25}
    - {x: 3.25, y: -3.25}
    - {x: 2, y: -4}
    - {x: 2, y: -4}
    - {x: 0, y: -5}
    - {x: 0, y: -5}
    - {x: -2, y: -4}
    - {x: -2, y: -4}
    - {x: -3.2500005, y: -3.2500005}
    - {x: -3.2500005, y: -3.2500005}
    - {x: -4.0000005, y: -2.0000007}
    - {x: -4.0000005, y: -2.0000007}
    - {x: -5.000001, y: -0.0000010728836}
    - {x: -5.000001, y: -0.0000010728836}
    - {x: -3.9999988, y: 2}
    - {x: -3.9999988, y: 2}
    - {x: -3.25, y: 3.25}
    - {x: -3.25, y: 3.25}
    - {x: -2.0000005, y: 4.0000014}
    - {x: -2.0000005, y: 4.0000014}
    resetSpeed: 00
    teleportToNext: 00
    destroyAlien: 00
    velsAfterArrival:
    - 0
    radiiOfCols:
    - 3
    loop: 0
  enemyPositionElements:
  - position: {x: 0, y: -64.075}
    poolIndex: 5
    pathIndex: 0
  - position: {x: 0, y: -64.075}
    poolIndex: 5
    pathIndex: 0
  - position: {x: -91.05, y: -0.00009918213}
    poolIndex: 5
    pathIndex: 0
  - position: {x: -91.05, y: -0.00009918213}
    poolIndex: 5
    pathIndex: 0
  - position: {x: -0.000029651817, y: 90.45}
    poolIndex: 5
    pathIndex: 0
  - position: {x: -0.000029651817, y: 90.45}
    poolIndex: 5
    pathIndex: 0
  - position: {x: 44.625, y: 0.000015258789}
    poolIndex: 5
    pathIndex: 0
  - position: {x: 44.625, y: 0.000015258789}
    poolIndex: 5
    pathIndex: 0
  - position: {x: 41.259716, y: -41.25965}
    poolIndex: 5
    pathIndex: 0
  - position: {x: 41.259716, y: -41.25965}
    poolIndex: 5
    pathIndex: 0
  - position: {x: -58.230255, y: -58.230244}
    poolIndex: 5
    pathIndex: 0
  - position: {x: -58.230255, y: -58.230244}
    poolIndex: 5
    pathIndex: 0
  - position: {x: -62.897156, y: 62.897156}
    poolIndex: 5
    pathIndex: 0
  - position: {x: -62.897156, y: 62.897156}
    poolIndex: 5
    pathIndex: 0
  - position: {x: 81.14042, y: 81.140594}
    poolIndex: 5
    pathIndex: 0
  - position: {x: 81.14042, y: 81.140594}
    poolIndex: 5
    pathIndex: 0
  - position: {x: 70.63989, y: 70.64004}
    poolIndex: 5
    pathIndex: 0
  - position: {x: 70.63989, y: 70.64004}
    poolIndex: 5
    pathIndex: 0
  - position: {x: -52.396618, y: 52.39662}
    poolIndex: 5
    pathIndex: 0
  - position: {x: -52.396618, y: 52.39662}
    poolIndex: 5
    pathIndex: 0
  - position: {x: -47.659004, y: -47.658997}
    poolIndex: 5
    pathIndex: 0
  - position: {x: -47.659004, y: -47.658997}
    poolIndex: 5
    pathIndex: 0
  - position: {x: 30.688461, y: -30.688412}
    poolIndex: 5
    pathIndex: 0
  - position: {x: 30.688461, y: -30.688412}
    poolIndex: 5
    pathIndex: 0
  - position: {x: 29.75, y: 0.000011444092}
    poolIndex: 5
    pathIndex: 0
  - position: {x: 29.75, y: 0.000011444092}
    poolIndex: 5
    pathIndex: 0
  - position: {x: -0.000024750827, y: 75.5}
    poolIndex: 5
    pathIndex: 0
  - position: {x: -0.000024750827, y: 75.5}
    poolIndex: 5
    pathIndex: 0
  - position: {x: -76.1, y: -0.00008392334}
    poolIndex: 5
    pathIndex: 0
  - position: {x: -76.1, y: -0.00008392334}
    poolIndex: 5
    pathIndex: 0
  - position: {x: 0, y: -49.2}
    poolIndex: 5
    pathIndex: 0
  - position: {x: 0, y: -49.2}
    poolIndex: 5
    pathIndex: 0
  specialAlienElements:
  - position: {x: 37.8, y: -0}
    poolIndex: 20
  - position: {x: -37.75, y: 0}
    poolIndex: 20
