%YAML 1.1
%TAG !u! tag:unity3d.com,2011:
--- !u!114 &11400000
MonoBehaviour:
  m_ObjectHideFlags: 0
  m_CorrespondingSourceObject: {fileID: 0}
  m_PrefabInternal: {fileID: 0}
  m_GameObject: {fileID: 0}
  m_Enabled: 1
  m_EditorHideFlags: 0
  m_Script: {fileID: 11500000, guid: 910489c8bc1edc94db8b8ed8187c8e67, type: 3}
  m_Name: 9_
  m_EditorClassIdentifier: 
  levelNo: 9
  maxProjectiles: 12
  maxPickups: 6
  bigAsteroidCount: 0
  smallAsteroidCount: 0
  riftAppears: 0
  pathElements:
  - positions:
    - {x: 6.999995, y: -8.000002}
    - {x: -8.000004, y: -4.999997}
    speeds:
    - 15
    - 10
    endPositions:
    - {x: -8.500004, y: -4.499997}
    - {x: -8.500004, y: -5.499997}
    - {x: -7.500004, y: -5.499997}
    - {x: -7.500004, y: -4.499997}
    - {x: -8.500003, y: -3.4999971}
    - {x: -9.500004, y: -5.499996}
    - {x: -7.500004, y: -6.499997}
    - {x: -6.500004, y: -4.499998}
    resetSpeed: 0000
    teleportToNext: 0000
    destroyAlien: 0000
    velsAfterArrival:
    - 0
    - 0
    radiiOfCols:
    - 0.4
    - 2
    loop: 0
  - positions:
    - {x: 12.999998, y: 7.0000043}
    - {x: 10.000003, y: -7.999997}
    speeds:
    - 15
    - 10
    endPositions:
    - {x: 9.500003, y: -8.499997}
    - {x: 10.500003, y: -8.499996}
    - {x: 10.500003, y: -7.4999967}
    - {x: 9.500003, y: -7.4999967}
    - {x: 8.500003, y: -8.499997}
    - {x: 10.500003, y: -9.499996}
    - {x: 11.500003, y: -7.499996}
    - {x: 9.500002, y: -6.4999967}
    resetSpeed: 0000
    teleportToNext: 0000
    destroyAlien: 0000
    velsAfterArrival:
    - 0
    - 0
    radiiOfCols:
    - 0.4
    - 2
    loop: 0
  - positions:
    - {x: -6.9999924, y: 8.000004}
    - {x: 8.000006, y: 4.999995}
    speeds:
    - 15
    - 10
    endPositions:
    - {x: 8.500006, y: 4.499995}
    - {x: 8.500007, y: 5.499995}
    - {x: 7.5000067, y: 5.499996}
    - {x: 7.5000057, y: 4.499996}
    - {x: 8.500005, y: 3.4999952}
    - {x: 9.500007, y: 5.4999943}
    - {x: 7.5000067, y: 6.499996}
    - {x: 6.5000057, y: 4.499996}
    resetSpeed: 0000
    teleportToNext: 0000
    destroyAlien: 0000
    velsAfterArrival:
    - 0
    - 0
    radiiOfCols:
    - 0.4
    - 2
    loop: 0
  - positions:
    - {x: -13, y: -7}
    - {x: -10, y: 8}
    speeds:
    - 15
    - 10
    endPositions:
    - {x: -9.5, y: 8.5}
    - {x: -10.5, y: 8.5}
    - {x: -10.5, y: 7.5}
    - {x: -9.5, y: 7.5}
    - {x: -8.5, y: 8.5}
    - {x: -10.5, y: 9.5}
    - {x: -11.5, y: 7.5}
    - {x: -9.5, y: 6.5}
    resetSpeed: 0000
    teleportToNext: 0000
    destroyAlien: 0000
    velsAfterArrival:
    - 0
    - 0
    radiiOfCols:
    - 0.4
    - 2
    loop: 0
  enemyPositionElements:
  - position: {x: 6.9999886, y: -25.000002}
    poolIndex: 2
    pathIndex: 0
  - position: {x: 6.9999886, y: -26.000002}
    poolIndex: 2
    pathIndex: 0
  - position: {x: 6.9999886, y: -27.000004}
    poolIndex: 2
    pathIndex: 0
  - position: {x: 6.9999886, y: -28.000004}
    poolIndex: 2
    pathIndex: 0
  - position: {x: 6.9999886, y: -29.000004}
    poolIndex: 2
    pathIndex: 0
  - position: {x: 6.9999886, y: -30.000004}
    poolIndex: 2
    pathIndex: 0
  - position: {x: 6.9999886, y: -31.000004}
    poolIndex: 2
    pathIndex: 0
  - position: {x: 6.9999886, y: -32.000004}
    poolIndex: 2
    pathIndex: 0
  - position: {x: 36.999996, y: 7.000012}
    poolIndex: 2
    pathIndex: 1
  - position: {x: 35.999996, y: 7.000012}
    poolIndex: 2
    pathIndex: 1
  - position: {x: 34.999996, y: 7.0000114}
    poolIndex: 2
    pathIndex: 1
  - position: {x: 33.999996, y: 7.000011}
    poolIndex: 2
    pathIndex: 1
  - position: {x: 32.999996, y: 7.000011}
    poolIndex: 2
    pathIndex: 1
  - position: {x: 31.999998, y: 7.0000105}
    poolIndex: 2
    pathIndex: 1
  - position: {x: 30.999998, y: 7.00001}
    poolIndex: 2
    pathIndex: 1
  - position: {x: 29.999998, y: 7.00001}
    poolIndex: 2
    pathIndex: 1
  - position: {x: -6.999983, y: 25.000004}
    poolIndex: 2
    pathIndex: 2
  - position: {x: -6.999981, y: 26.000004}
    poolIndex: 2
    pathIndex: 2
  - position: {x: -6.999981, y: 27.000004}
    poolIndex: 2
    pathIndex: 2
  - position: {x: -6.999981, y: 28.000004}
    poolIndex: 2
    pathIndex: 2
  - position: {x: -6.999981, y: 29.000004}
    poolIndex: 2
    pathIndex: 2
  - position: {x: -6.999981, y: 30.000004}
    poolIndex: 2
    pathIndex: 2
  - position: {x: -6.999977, y: 31.000004}
    poolIndex: 2
    pathIndex: 2
  - position: {x: -6.999977, y: 32.000004}
    poolIndex: 2
    pathIndex: 2
  - position: {x: -37, y: -7}
    poolIndex: 2
    pathIndex: 3
  - position: {x: -36, y: -7}
    poolIndex: 2
    pathIndex: 3
  - position: {x: -35, y: -7}
    poolIndex: 2
    pathIndex: 3
  - position: {x: -34, y: -7}
    poolIndex: 2
    pathIndex: 3
  - position: {x: -33, y: -7}
    poolIndex: 2
    pathIndex: 3
  - position: {x: -32, y: -7}
    poolIndex: 2
    pathIndex: 3
  - position: {x: -31, y: -7}
    poolIndex: 2
    pathIndex: 3
  - position: {x: -30, y: -7}
    poolIndex: 2
    pathIndex: 3
  specialAlienElements:
  - position: {x: 0, y: -40}
    poolIndex: 6
