%YAML 1.1
%TAG !u! tag:unity3d.com,2011:
--- !u!114 &11400000
MonoBehaviour:
  m_ObjectHideFlags: 0
  m_CorrespondingSourceObject: {fileID: 0}
  m_PrefabInternal: {fileID: 0}
  m_GameObject: {fileID: 0}
  m_Enabled: 1
  m_EditorHideFlags: 0
  m_Script: {fileID: 11500000, guid: 97877cd3b315eee4e9a5f0e2fb97a000, type: 3}
  m_Name: Dash Mine
  m_EditorClassIdentifier: 
  speed: 0
  damage: 10
  lifeTime: 3
  poolIndex: 45
  explosionPoolIndex: 77
  isEnemy: 0
